﻿Form\Форма\Форма.bsl-->70e297e0-e8a2-43bf-8be1-62e408f610a1.0 (46, 224)
Макеты\График.txt-->a2c6a15b-3f8e-4725-bd8b-899e5da5d6c2.0
Макеты\ДанныеСотрудников.txt-->d459e6c2-32c1-4d06-90a0-2c27ccba722d.0
Макеты\Сотрудники.txt-->e09a4e4e-b0c4-49ca-aa24-0cd03c8deb10.0
