﻿70e297e0-e8a2-43bf-8be1-62e408f610a1-->und\70e297e0-e8a2-43bf-8be1-62e408f610a1
70e297e0-e8a2-43bf-8be1-62e408f610a1.0-->und\70e297e0-e8a2-43bf-8be1-62e408f610a1.0
79a499cc-1782-4a2f-abe7-61ea4d49fd5a-->und\79a499cc-1782-4a2f-abe7-61ea4d49fd5a
8aa13ab8-188a-4f59-be4f-031aa5450c90.0\info-->und\8aa13ab8-188a-4f59-be4f-031aa5450c90.0\info
8aa13ab8-188a-4f59-be4f-031aa5450c90.0\text-->ObjectModule.bsl
a2c6a15b-3f8e-4725-bd8b-899e5da5d6c2-->und\a2c6a15b-3f8e-4725-bd8b-899e5da5d6c2
a2c6a15b-3f8e-4725-bd8b-899e5da5d6c2.0-->und\a2c6a15b-3f8e-4725-bd8b-899e5da5d6c2.0
copyinfo-->und\copyinfo
d459e6c2-32c1-4d06-90a0-2c27ccba722d-->und\d459e6c2-32c1-4d06-90a0-2c27ccba722d
d459e6c2-32c1-4d06-90a0-2c27ccba722d.0-->und\d459e6c2-32c1-4d06-90a0-2c27ccba722d.0
e09a4e4e-b0c4-49ca-aa24-0cd03c8deb10-->und\e09a4e4e-b0c4-49ca-aa24-0cd03c8deb10
e09a4e4e-b0c4-49ca-aa24-0cd03c8deb10.0-->und\e09a4e4e-b0c4-49ca-aa24-0cd03c8deb10.0
root-->und\root
version-->und\version
versions-->und\versions
